{
 "fragments": [
  {
   "begin": "0.000",
   "children": [],
   "end": "2.760",
   "id": "f000001",
   "language": "en",
   "lines": [
    "tell me about benefits of short term investment account"
   ]
  }
 ]
}