{
 "fragments": [
  {
   "begin": "0.000",
   "children": [],
   "end": "3.600",
   "id": "f000001",
   "language": "en",
   "lines": [
    "please provide eligible banoon children account for draw"
   ]
  }
 ]
}