{
 "fragments": [
  {
   "begin": "0.000",
   "children": [],
   "end": "4.080",
   "id": "f000001",
   "language": "en",
   "lines": [
    "what is the profit payout frequency of ghina savings account"
   ]
  }
 ]
}