{
 "fragments": [
  {
   "begin": "0.000",
   "children": [],
   "end": "4.680",
   "id": "f000001",
   "language": "en",
   "lines": [
    "tell me if emirates ID is required for ghina savings account"
   ]
  }
 ]
}