{
 "fragments": [
  {
   "begin": "0.000",
   "children": [],
   "end": "3.520",
   "id": "f000001",
   "language": "en",
   "lines": [
    "how can i change my current account to a joint account"
   ]
  }
 ]
}