{
 "fragments": [
  {
   "begin": "0.000",
   "children": [],
   "end": "3.280",
   "id": "f000001",
   "language": "en",
   "lines": [
    "when is the profit payout  of Ghina savings account"
   ]
  }
 ]
}