{
 "fragments": [
  {
   "begin": "0.000",
   "children": [],
   "end": "2.680",
   "id": "f000001",
   "language": "en",
   "lines": [
    "give me profit rate of banoon children account"
   ]
  }
 ]
}