{
 "fragments": [
  {
   "begin": "0.000",
   "children": [],
   "end": "3.560",
   "id": "f000001",
   "language": "en",
   "lines": [
    "what documents are required to apply for smart account"
   ]
  }
 ]
}