{
 "fragments": [
  {
   "begin": "0.000",
   "children": [],
   "end": "4.360",
   "id": "f000001",
   "language": "en",
   "lines": [
    "can you talk about benefits of investment deposit account"
   ]
  }
 ]
}