{
 "fragments": [
  {
   "begin": "0.000",
   "children": [],
   "end": "4.440",
   "id": "f000001",
   "language": "en",
   "lines": [
    "tell me about minimum initial deposit of investment deposit account"
   ]
  }
 ]
}