{
 "fragments": [
  {
   "begin": "0.000",
   "children": [],
   "end": "3.040",
   "id": "f000001",
   "language": "en",
   "lines": [
    "show me eligible savings account for sharia compliant"
   ]
  }
 ]
}