{
 "fragments": [
  {
   "begin": "0.000",
   "children": [],
   "end": "4.000",
   "id": "f000001",
   "language": "en",
   "lines": [
    "I want to know if savings account is sharia compliant"
   ]
  }
 ]
}