{
 "fragments": [
  {
   "begin": "0.000",
   "children": [],
   "end": "4.040",
   "id": "f000001",
   "language": "en",
   "lines": [
    "i am looking for profit payout frequency of current account"
   ]
  }
 ]
}