{
 "fragments": [
  {
   "begin": "0.000",
   "children": [],
   "end": "3.360",
   "id": "f000001",
   "language": "en",
   "lines": [
    "i am interested in document for smart account"
   ]
  }
 ]
}