{
 "fragments": [
  {
   "begin": "0.000",
   "children": [],
   "end": "3.440",
   "id": "f000001",
   "language": "en",
   "lines": [
    "how can i apply for joint account for current account"
   ]
  }
 ]
}