{
 "fragments": [
  {
   "begin": "0.000",
   "children": [],
   "end": "2.800",
   "id": "f000001",
   "language": "en",
   "lines": [
    "is debit card free for banoon Childrens account"
   ]
  }
 ]
}