{
 "fragments": [
  {
   "begin": "0.000",
   "children": [],
   "end": "4.160",
   "id": "f000001",
   "language": "en",
   "lines": [
    "Is there a minimum initial deposit for short Term investment account"
   ]
  }
 ]
}