{
 "fragments": [
  {
   "begin": "0.000",
   "children": [],
   "end": "4.520",
   "id": "f000001",
   "language": "en",
   "lines": [
    "can you help me with information on eligible electron account for draw"
   ]
  }
 ]
}