{
 "fragments": [
  {
   "begin": "0.000",
   "children": [],
   "end": "3.480",
   "id": "f000001",
   "language": "en",
   "lines": [
    "I want to know about benefits of smart account"
   ]
  }
 ]
}