{
 "fragments": [
  {
   "begin": "0.000",
   "children": [],
   "end": "4.120",
   "id": "f000001",
   "language": "en",
   "lines": [
    "give me info on banoon children account eligible for draw"
   ]
  }
 ]
}