{
 "fragments": [
  {
   "begin": "0.000",
   "children": [],
   "end": "3.240",
   "id": "f000001",
   "language": "en",
   "lines": [
    "like to know if my savings account sharia compliant"
   ]
  }
 ]
}