{
 "fragments": [
  {
   "begin": "0.000",
   "children": [],
   "end": "3.480",
   "id": "f000001",
   "language": "en",
   "lines": [
    "what are the electron account products of your bank"
   ]
  }
 ]
}