{
 "fragments": [
  {
   "begin": "0.000",
   "children": [],
   "end": "3.320",
   "id": "f000001",
   "language": "en",
   "lines": [
    "when can I expect profit on Ghina salary account"
   ]
  }
 ]
}