{
 "fragments": [
  {
   "begin": "0.000",
   "children": [],
   "end": "4.560",
   "id": "f000001",
   "language": "en",
   "lines": [
    "can you help me with information on profit payout frequency of ghina salary account"
   ]
  }
 ]
}