{
 "fragments": [
  {
   "begin": "0.000",
   "children": [],
   "end": "3.960",
   "id": "f000001",
   "language": "en",
   "lines": [
    "Interested in ghina savings account profit payout frequency"
   ]
  }
 ]
}