{
 "fragments": [
  {
   "begin": "0.000",
   "children": [],
   "end": "3.760",
   "id": "f000001",
   "language": "en",
   "lines": [
    "who can get a free debit card for student account"
   ]
  }
 ]
}